{
  "dialogId": 2,
  "userId": 7,
  "itemId": 4,
  "usersInfo": {
    "6": {
      "displayName": "Dima",
      "avatarUrl": null,
      "email": null,
      "valid": true,
      "lang": "ru",
      "id": 6
    },
    "7": {
      "displayName": "Tatiana Burdyug",
      "avatarUrl": "https://graph.facebook.com/v2.5/1119423774759297/picture",
      "email": "tanyushaburdyug@gmail.com",
      "valid": false,
      "lang": "ru",
      "id": 7
    }
  },
  "messages": [
    {
      "id": 8,
      "sender": 7,
      "message": "dw",
      "isRead": false,
      "timestmp": 1461064497013
    },
    {
      "id": 5,
      "sender": 7,
      "message": "sdsd",
      "isRead": false,
      "timestmp": 1461062112286
    },
    {
      "id": 3,
      "sender": 6,
      "message": "1",
      "isRead": false,
      "timestmp": 1461061193558
    },
    {
      "id": 4,
      "sender": 7,
      "message": "some message",
      "isRead": false,
      "timestmp": 1461061713182
    },
    {
      "id": 7,
      "sender": 7,
      "message": "2",
      "isRead": false,
      "timestmp": 1461062454243
    },
    {
      "id": 2,
      "sender": 7,
      "message": "asdadad",
      "isRead": false,
      "timestmp": 1461061133682
    },
    {
      "id": 6,
      "sender": 7,
      "message": "2",
      "isRead": false,
      "timestmp": 1461062305577
    }
  ]
}