[
  {
    "id": 4,
    "description": "kjskjd #kia #rio #best",
    "tags": [
      "kia",
      "rio",
      "best"
    ],
    "timestamp": 1461060839017,
    "latitude": 50.43236,
    "longitude": 30.50705,
    "location": "вулиця Короленківська, 6, Київ, Украина",
    "author": "Dima",
    "providerId": "backloss",
    "photoUrls": ["photo/1461060838615/4/IMG_27042015_212644.png"],
    "enabled": true,
    "ownerId": 6,
    "link": null,
    "image": null
  }
]